<svg width="143" height="143" viewBox="0 0 143 143" fill="none" xmlns="http://www.w3.org/2000/svg">
<path fill-rule="evenodd" clip-rule="evenodd" d="M142.087 73.0803L137.264 48.7325C135.743 42.553 135.409 35.0785 132.627 30.0462C129.14 23.8667 122.536 20.5365 116.304 17.0952C109.403 13.395 102.466 9.39869 95.5286 5.4394L85.3265 0H69.2629H57.6882L46.5586 5.99442C40.2519 9.69468 33.8338 12.9879 27.6384 16.6512C21.4429 20.3145 14.4684 23.3857 10.8699 29.8612C9.77953 32.3222 8.99465 34.9068 8.53265 37.5577L4.8228 54.468L1.11295 72.9693L0 79.8888L1.59524 81.8129H29.2336L30.4208 80.1478L32.758 68.4179C33.7596 69.602 34.1306 78.6677 34.6129 81.0729L35.8371 89.5835L29.0481 119.371L26.2657 132.507C25.8948 134.061 25.2641 136.577 26.2657 137.428C27.2674 138.279 29.382 137.872 30.8288 138.168L44.073 139.722L64.2175 141.942C68.1228 142.894 72.1573 143.207 76.1632 142.867L96.8642 140.203L112.334 138.168C114.189 137.798 116.86 138.168 117.342 136.392C117.241 134.036 116.804 131.706 116.044 129.472L112.334 112.34L107.586 89.4354L110.368 68.714C111.629 71.1932 111.741 80.0368 113.596 81.2949C115.451 82.553 117.936 81.2949 119.902 81.665H141.605C143.942 79.8888 142.792 76.1885 142.087 73.0803ZM59.3576 5.06935H84.2136L91.2623 8.76962L87.1814 15.8742L73.5292 39.5559L71.4888 36.5956L66.666 29.4541L52.6798 8.65862L59.3576 5.06935ZM109.515 121.369L112.037 132.914L104.061 134.024L82.1732 136.873L76.9794 137.428C74.5026 137.714 71.9954 137.59 69.5597 137.058L62.14 136.318L46.0763 134.764L31.7934 132.988L37.9147 104.866L39.8438 96.1699C39.9874 94.901 40.2993 93.6567 40.7712 92.4697C49.339 94.3645 58.0099 95.7606 66.7402 96.651H67.5563L60.1366 116.114C60.4705 118.261 62.9561 118.372 64.5143 117.928L71.934 99.7592C72.8985 100.61 73.2324 102.756 73.6034 103.903L77.0165 112.414C77.6471 113.894 78.2036 116.817 80.7263 116.114C83.249 115.411 82.0248 112.414 81.5425 110.971L76.4229 97.021H77.2019L82.3215 96.762L87.8863 96.0219C91.5962 95.2448 95.306 94.6529 98.7191 93.8018L102.429 92.9507H102.985C104.432 94.4308 104.952 100.647 105.657 103.126C106.918 109.047 107.771 115.226 109.329 121.369H109.515ZM137.71 76.4105L130.587 76.5955L117.305 76.4105L113.892 57.9092C113.489 54.8031 112.704 51.7582 111.555 48.8435C110.718 48.5314 109.796 48.5314 108.958 48.8435C107.289 49.6945 107.14 56.4661 106.658 58.9453L102.652 87.6223H102.429C100.46 88.3409 98.4209 88.8495 96.3448 89.1395C91.6819 90.4533 86.8956 91.2841 82.0619 91.6187L76.9423 91.9147C73.8257 92.0867 70.7007 92.0249 67.5934 91.7297L61.1754 91.1746L46.8925 88.5844L41.1422 87.4743C40.2519 86.5862 40.289 81.6279 39.9551 80.0738L36.6904 57.3171C36.171 54.8379 36.6904 49.9166 34.5758 48.8065C31.1627 47.1414 30.8659 52.1737 30.495 54.2829L26.2286 76.4845H5.75026L12.1683 44.5513C13.4667 39.5189 13.7264 33.9685 16.5088 30.4162C19.4538 27.2967 22.9828 24.7826 26.8964 23.0157L40.8083 14.986L47.5603 11.2858H47.9312L76.9794 54.505L102.355 87.8074L103.097 81.4059L81.9135 52.9879L76.5342 45.0322C77.8514 41.7338 79.5575 38.6036 81.6167 35.7076L95.6399 11.1748C96.5674 11.1748 97.9029 12.4699 98.7933 12.9509L108.513 18.5013C114.189 21.6096 123.946 25.9019 127.433 31.0822C130.179 35.0045 130.401 41.517 131.7 46.8084L137.635 76.4105H137.71Z" fill="#E31B32"/>
</svg>
