<svg width="83" height="82" viewBox="0 0 83 82" fill="none" xmlns="http://www.w3.org/2000/svg">
<path d="M7.92864 63.6218C12.2501 70.0142 18.314 75.0334 25.4014 78.0841L30.2118 63.6218H7.92864Z" fill="#0079BB"/>
<path d="M35.674 63.6218L30.2738 79.8221C33.9739 80.9013 37.8095 81.4448 41.6637 81.4359C45.629 81.4489 49.5736 80.863 53.3639 79.6979L47.9328 63.6218H35.674Z" fill="#0079BB"/>
<path d="M58.1123 77.991C65.0852 74.9208 71.0463 69.9389 75.3057 63.6218H53.3329L58.1123 77.991Z" fill="#0079BB"/>
<path d="M1.47335 47.2974C2.11259 51.1795 3.3259 54.9449 5.07342 58.47H78.254C79.8591 55.1808 81.0276 51.6961 81.7299 48.1043C69.4505 50.897 56.8947 52.2921 44.3017 52.263C29.8842 52.2251 15.517 50.5594 1.47335 47.2974Z" fill="#0079BB"/>
<path d="M25.6807 3.25879C18.4944 6.31511 12.334 11.3662 7.92864 17.8142H30.429L25.6807 3.25879Z" fill="#0079BB"/>
<path d="M47.6224 17.8141L53.0225 1.6449C49.3362 0.547937 45.5098 -0.00616264 41.6637 5.16945e-05C37.8737 0.00366036 34.1027 0.536381 30.4601 1.58282L35.8602 17.8141H47.6224Z" fill="#0079BB"/>
<path d="M75.3057 17.814C70.9882 11.4376 64.936 6.43003 57.864 3.38269L53.0225 17.814H75.3057Z" fill="#0079BB"/>
<path d="M81.8851 34.2626C81.2366 30.3192 80.0132 26.4922 78.254 22.9038H5.07343C3.31972 26.4591 2.10632 30.2561 1.47335 34.1695C14.8473 31.0864 28.5286 29.535 42.2534 29.5453C55.6121 29.4028 68.9331 30.9884 81.8851 34.2626Z" fill="#0079BB"/>
<path d="M82.4127 39.6627L81.5748 39.4144C68.678 36.0675 55.3897 34.4704 42.0672 34.666C28.486 34.6582 14.9489 36.2098 1.72166 39.2903L0.945781 39.5075C0.914883 39.9104 0.914883 40.315 0.945781 40.7179C0.914907 41.1414 0.914907 41.5667 0.945781 41.9903H1.59754C15.4906 45.1936 29.7028 46.8074 43.9603 46.8007C56.5564 47.0369 69.1346 45.7447 81.4196 42.9524L82.3506 42.7041C82.3506 42.0834 82.3506 41.4317 82.3506 40.7489C82.3506 40.0661 82.4127 40.0041 82.4127 39.6627Z" fill="#0079BB"/>
</svg>
