<svg width="82" height="82" viewBox="0 0 82 82" fill="none" xmlns="http://www.w3.org/2000/svg">
<path d="M22.5907 49.8422C17.5341 35.9367 16.3541 20.9178 19.1769 6.39321C10.8737 11.6056 4.73171 19.6407 1.88066 29.0206C-0.970378 38.4005 -0.338767 48.4945 3.65934 57.4458H4.12495C10.4927 55.6475 16.6674 53.2253 22.5597 50.2146C22.5597 50.2146 22.5907 49.9043 22.5907 49.8422ZM38.6359 0C33.9881 0.23135 29.4178 1.282 25.1356 3.1035L24.7322 4.71731C21.398 18.8685 22.2499 33.6837 27.1839 47.3594C30.9042 45.1089 34.4613 42.5992 37.8289 39.849L38.1703 39.6007C38.1703 39.4145 38.1703 39.1972 38.0151 38.9489C35.2246 26.0909 35.4371 12.7626 38.6359 0ZM42.0497 43.8214C41.8071 43.7526 41.5688 43.6697 41.3359 43.5732C41.2539 43.6796 41.1474 43.7648 41.0255 43.8214C30.819 52.2327 18.9539 58.3979 6.20424 61.9149C8.49189 65.7205 11.3971 69.1188 14.8009 71.9702L16.6321 71.4426C30.7656 67.2499 43.588 59.5031 53.8741 48.9422C50.0547 46.9662 46.1038 45.2553 42.0497 43.8214ZM61.6018 5.71043C56.1961 2.53058 50.1343 0.630287 43.8808 0.155161L43.7256 0.713792C42.1582 6.80114 41.3041 13.0501 41.1807 19.3348C56.1683 22.5575 70.0672 29.6032 81.5262 39.7869C81.3787 32.8809 79.4715 26.1268 75.9849 20.1638C72.4983 14.2007 67.5478 9.226 61.6018 5.71043ZM74.0158 63.8701C69.3204 59.2316 64.1147 55.1399 58.4983 51.6733C47.9655 62.8205 34.7946 71.135 20.2011 75.8496C29.0289 81.0604 39.4983 82.747 49.5158 80.572C59.5334 78.397 68.3609 72.5208 74.2331 64.1183L74.0158 63.8701ZM79.9124 45.2491C69.1271 35.0692 55.7853 28.0015 41.3048 24.797C41.5533 29.3044 42.1447 33.7865 43.0739 38.2041C43.1722 38.5078 43.2449 38.8193 43.2911 39.1351L43.8497 39.3214C56.301 43.632 67.6421 50.6486 77.0573 59.8665C79.2407 55.7523 80.6899 51.2888 81.34 46.6767L79.9124 45.2491Z" fill="#0079BB"/>
</svg>
