<svg width="31" height="31" viewBox="0 0 31 31" fill="none" xmlns="http://www.w3.org/2000/svg">
<path d="M15.5 0C6.95333 0 0 6.82607 0 15.2163C0 23.6059 6.95333 30.4326 15.5 30.4326C24.046 30.4326 31 23.6059 31 15.2163C31 6.82607 24.0473 0 15.5 0ZM19.3547 15.752H16.833C16.833 19.7072 16.833 24.5756 16.833 24.5756H13.0963C13.0963 24.5756 13.0963 19.7544 13.0963 15.752H11.32V12.6335H13.0963V10.6164C13.0963 9.17171 13.7955 6.91433 16.8673 6.91433L19.6363 6.92475V9.95195C19.6363 9.95195 17.9537 9.95195 17.6265 9.95195C17.2994 9.95195 16.8342 10.1125 16.8342 10.8015V12.6341H19.6812L19.3547 15.752Z" fill="#7C7C7C"/>
</svg>
