<svg width="227" height="219" viewBox="0 0 227 219" fill="none" xmlns="http://www.w3.org/2000/svg">
<path d="M84.8381 35.4618C86.2375 48.271 92.0287 59.7647 100.666 68.4033C108.794 76.5296 119.446 82.135 131.343 83.9352C136.528 84.7196 138.491 83.7991 138.491 78.8782V63.0917C138.491 59.7828 138.033 58.8469 134.869 58.2898C128.693 57.2015 123.154 54.3579 118.917 50.1518C115.076 46.3091 112.374 41.3825 111.047 35.9153C110.227 32.5269 109.633 30.5669 105.807 30.5797C100.478 30.5994 95.149 30.5886 89.8213 30.5831C85.703 30.5797 84.3854 31.3169 84.8381 35.4618Z" fill="#0078BF"/>
<path d="M115.624 41.6886C116.899 44.2107 118.6 46.4999 120.585 48.4843C124.119 52.0186 128.629 54.581 133.673 55.7251C137.009 56.4834 138.491 54.5186 138.491 51.4693V34.3162C138.491 31.3597 136.776 30.6465 134.026 30.817C130.859 31.0136 127.685 31.5546 124.615 32.4372C122.199 33.1323 119.848 34.0429 117.616 35.1673C115.318 36.3266 114.468 39.4005 115.624 41.6886Z" fill="#FBBA18"/>
<path d="M155.767 30.5781H152.647H147.779H143.873C142.21 30.5781 140.848 31.9375 140.848 33.602V81.5338C140.848 83.1982 142.21 84.5597 143.873 84.5597H163.635C165.3 84.5597 166.66 83.1982 166.66 81.5338V33.602C166.66 31.9375 165.3 30.5781 163.635 30.5781H160.743H155.767Z" fill="#41A64D"/>
<path d="M84.8381 136.028C86.2375 123.219 92.0287 111.726 100.666 103.087C108.794 94.961 119.446 89.3556 131.343 87.555C136.528 86.7715 138.491 87.6911 138.491 92.6122V108.399C138.491 111.708 138.033 112.643 134.869 113.201C128.693 114.289 123.154 117.133 118.917 121.34C115.076 125.181 112.374 130.108 111.047 135.575C110.227 138.963 109.633 140.924 105.807 140.911C100.478 140.891 95.149 140.902 89.8213 140.907C85.703 140.911 84.3854 140.173 84.8381 136.028Z" fill="#E41D2D"/>
<path d="M115.624 129.801C116.899 127.279 118.6 124.99 120.585 123.006C124.119 119.471 128.629 116.909 133.673 115.765C137.009 115.006 138.491 116.971 138.491 120.02V137.173C138.491 140.131 136.776 140.843 134.026 140.673C130.859 140.476 127.685 139.935 124.615 139.052C122.199 138.357 119.848 137.447 117.616 136.322C115.318 135.164 114.468 132.089 115.624 129.801Z" fill="#41A64D"/>
<path d="M89.0029 86.9282H106.936C109.353 86.9282 110.229 86.7848 110.541 89.3528C110.88 92.1694 110.763 92.2765 108.41 93.8004C105.011 96.0055 101.855 98.5644 98.9998 101.419C97.0669 103.353 95.2681 105.426 93.6254 107.617C91.8213 110.024 89.9627 109.882 88.7838 107.07C86.7512 102.225 85.3873 97.0253 84.8155 91.5934C84.434 87.9632 84.9898 86.9282 89.0029 86.9282Z" fill="#41A64D"/>
<path d="M155.767 140.912H152.647H147.779H143.873C142.21 140.912 140.848 139.552 140.848 137.888V89.9564C140.848 88.2919 142.21 86.9307 143.873 86.9307H163.635C165.3 86.9307 166.66 88.2919 166.66 89.9564V137.888C166.66 139.552 165.3 140.912 163.635 140.912H160.743H155.767Z" fill="#FBBA18"/>
<path d="M71.259 30.5781H68.1403H63.2723H59.3638C57.6997 30.5781 56.3409 31.9375 56.3409 33.602V81.5338C56.3409 83.1982 57.6997 84.5597 59.3638 84.5597H79.1265C80.791 84.5597 82.1514 83.1982 82.1514 81.5338V33.602C82.1514 31.9375 80.791 30.5781 79.1265 30.5781H76.2339H71.259Z" fill="#E41D2D"/>
<path d="M71.259 86.917H68.1403H63.2723H59.3638C57.6997 86.917 56.3409 88.2777 56.3409 89.942V137.874C56.3409 139.538 57.6997 140.9 59.3638 140.9H79.1265C80.791 140.9 82.1514 139.538 82.1514 137.874V89.942C82.1514 88.2777 80.791 86.917 79.1265 86.917H76.2339H71.259Z" fill="#0078BF"/>
<path d="M53.9812 130.005V118.112C53.9812 116.447 52.6199 115.087 50.9554 115.087H3.02472C1.35939 115.087 0 116.447 0 118.112V137.873C0 139.538 1.35939 140.899 3.02472 140.899H50.9554C52.6199 140.899 53.9812 139.538 53.9812 137.873V130.005Z" fill="#FBBA18"/>
<path d="M53.9812 45.4962V33.602C53.9812 31.9375 52.6199 30.5781 50.9554 30.5781H3.02472C1.35939 30.5781 0 31.9375 0 33.602V53.3637C0 55.0282 1.35939 56.3896 3.02472 56.3896H50.9554C52.6199 56.3896 53.9812 55.0282 53.9812 53.3637V45.4962Z" fill="#41A64D"/>
<path d="M223 130.005V118.112C223 116.447 221.639 115.087 219.975 115.087H172.043C170.379 115.087 169.019 116.447 169.019 118.112V137.873C169.019 139.538 170.379 140.899 172.043 140.899H219.975C221.639 140.899 223 139.538 223 137.873V130.005Z" fill="#0078BF"/>
<path d="M223 45.4962V33.602C223 31.9375 221.639 30.5781 219.975 30.5781H172.043C170.379 30.5781 169.019 31.9375 169.019 33.602V53.3637C169.019 55.0282 170.379 56.3896 172.043 56.3896H219.975C221.639 56.3896 223 55.0282 223 53.3637V45.4962Z" fill="#E41D2D"/>
<path d="M222.671 107.838C221.273 95.0291 215.482 83.5353 206.842 74.8958C198.716 66.7695 188.063 61.1651 176.168 59.3638C170.983 58.5795 169.019 59.5009 169.019 64.4217V80.2083C169.019 83.5172 169.478 84.4528 172.641 85.0101C178.818 86.0986 184.354 88.9422 188.592 93.1483C192.434 96.9909 195.137 101.917 196.463 107.384C197.282 110.773 197.876 112.733 201.703 112.72C207.031 112.7 212.36 112.711 217.689 112.717C221.807 112.72 223.123 111.983 222.671 107.838Z" fill="#FBBA18"/>
<path d="M191.885 101.608C190.611 99.087 188.91 96.796 186.926 94.8134C183.392 91.2791 178.879 88.7167 173.837 87.5726C170.5 86.8133 169.019 88.7789 169.019 91.8281V108.982C169.019 111.938 170.733 112.651 173.485 112.481C176.65 112.283 179.824 111.743 182.895 110.86C185.31 110.165 187.663 109.254 189.894 108.129C192.194 106.971 193.041 103.897 191.885 101.608Z" fill="#41A64D"/>
<path d="M218.508 58.7378H200.575C198.156 58.7378 197.281 58.5947 196.97 61.1616C196.628 63.9789 196.747 64.0855 199.099 65.6101C202.5 67.8151 205.656 70.374 208.509 73.2287C210.444 75.1626 212.242 77.2345 213.885 79.4264C215.689 81.8337 217.548 81.6923 218.727 78.8789C220.76 74.0346 222.124 68.8333 222.695 63.4019C223.077 59.7728 222.519 58.7378 218.508 58.7378Z" fill="#41A64D"/>
<path d="M53.6532 63.6174C52.2547 76.4267 46.4627 87.9205 37.8245 96.5591C29.6972 104.686 19.0457 110.291 7.14853 112.091C1.96281 112.876 0 111.955 0 107.034V91.2475C0 87.9386 0.458 87.0029 3.62432 86.4456C9.79841 85.3571 15.3362 82.5127 19.5739 78.3075C23.4147 74.4649 26.1179 69.5386 27.4431 64.071C28.2646 60.682 28.8587 58.7216 32.6842 58.7354C38.0119 58.755 43.3424 58.7442 48.67 58.7379C52.7875 58.7354 54.1049 59.473 53.6532 63.6174Z" fill="#0078BF"/>
<path d="M22.8667 69.8453C21.5925 72.3664 19.8905 74.6573 17.9066 76.6399C14.3733 80.1742 9.86166 82.7366 4.82003 83.8827C1.48223 84.64 0 82.6744 0 79.6253V62.4722C0 59.5167 1.71563 58.8025 4.46627 58.9727C7.6301 59.1702 10.8057 59.7104 13.8767 60.593C16.2921 61.2889 18.6443 62.1996 20.8769 63.3239C23.1738 64.4836 24.0234 67.5581 22.8667 69.8453Z" fill="#E41D2D"/>
<path d="M49.4884 112.716H31.5544C29.1389 112.716 28.2608 112.859 27.9507 110.292C27.6109 107.476 27.7299 107.368 30.0805 105.843C33.4794 103.638 36.6362 101.08 39.4915 98.2248C41.4254 96.2908 43.2232 94.219 44.8649 92.0271C46.67 89.6206 48.5283 89.7615 49.7095 92.5746C51.7407 97.4196 53.1039 102.62 53.6755 108.052C54.0571 111.681 53.5008 112.716 49.4884 112.716Z" fill="#E41D2D"/>
<path d="M89.0029 84.561H106.936C109.353 84.561 110.229 84.7041 110.541 82.1364C110.88 79.3198 110.763 79.2122 108.41 77.6887C105.011 75.4832 101.855 72.9246 98.9998 70.07C97.0669 68.1361 95.2681 66.0633 93.6254 63.8724C91.8213 61.465 89.9627 61.6064 88.7838 64.4188C86.7512 69.2641 85.3873 74.4634 84.8155 79.8958C84.434 83.5256 84.9898 84.561 89.0029 84.561Z" fill="#FBBA18"/>
<path fill-rule="evenodd" clip-rule="evenodd" d="M47.022 5.16277H46.1543L44.8341 10.8875H48.3423L47.022 5.16277ZM222.999 13.8348H222.993C222.982 14.2096 222.956 14.5844 222.891 14.9687C222.222 19.1236 218.756 20.6495 213.978 20.6495C208.641 20.6495 204.944 18.7488 204.944 13.4116V7.23866C204.944 1.90066 208.641 0 213.978 0C219.138 0 222.766 1.78039 222.999 6.72695H216.638C216.638 5.55315 216.023 4.60271 214.516 4.60271C213.006 4.60271 212.392 5.55315 212.392 6.72695V13.9241C212.392 15.0963 213.006 16.047 214.516 16.047C216.023 16.047 216.638 15.0963 216.638 13.9241V13.8348H215.041V9.23234H222.999V9.88573V12.6776V12.7136V12.7511C222.999 12.9993 223.001 13.2417 222.999 13.483V13.8348ZM182.213 13.4124C182.213 18.7488 178.516 20.6511 173.179 20.6511C167.843 20.6511 164.146 18.7488 164.146 13.4124V0.560084H171.591V11.2308V14.1895C171.591 15.2245 172.022 16.0484 173.179 16.0484C174.339 16.0484 174.765 15.2245 174.765 14.1895V0.560084H182.213V13.4124ZM161.428 6.59373V6.59242C161.428 3.26185 158.724 0.560084 155.394 0.560084H152.398H144.952V10.3247V20.091H155.394C158.724 20.091 161.428 17.389 161.428 14.0587V14.0557C161.428 12.6478 160.944 11.3529 160.134 10.3247C160.944 9.29816 161.428 8.0033 161.428 6.59373V6.59373ZM152.398 15.4883V12.6261H153.643C154.431 12.6316 155.066 13.2707 155.066 14.0571C155.066 14.8484 154.425 15.4883 153.634 15.4883H152.398V15.4883ZM153.643 8.02498H152.398V5.16277H153.634C154.425 5.16277 155.066 5.80292 155.066 6.59373C155.066 7.38032 154.431 8.01943 153.643 8.02498V8.02498ZM185.288 0.560084H195.808C196.425 0.560084 197.051 0.539995 197.659 0.644927C200.122 1.06544 202.06 3.02213 202.453 5.4929C202.583 6.30988 202.575 7.37876 202.419 8.18305C202.095 9.86406 201.047 11.2881 199.619 12.1252L204.216 20.091H196.874L192.736 12.9232V20.091H185.288V0.560084V0.560084ZM192.736 5.16277V8.32076H194.587C195.462 8.32076 196.167 7.61425 196.167 6.74176C196.167 5.87007 195.462 5.16277 194.587 5.16277H192.736ZM110.989 20.0551H118.435V0.560084H110.989V20.0551ZM90.3083 0.560084H100.825C101.442 0.560084 102.07 0.539995 102.68 0.644927C105.139 1.06677 107.077 3.02345 107.473 5.4929C107.604 6.30988 107.595 7.37874 107.439 8.18463C107.111 9.86405 106.067 11.2895 104.637 12.1252L109.236 20.091H101.892L97.7561 12.9232V20.091H90.3083V0.560084V0.560084ZM97.7561 5.16277V8.32233H99.6076C100.479 8.32233 101.187 7.61425 101.187 6.74176C101.187 5.87007 100.479 5.16277 99.6076 5.16277H97.7561V5.16277ZM0 20.0551V0.560084H13.806V5.16277H7.44456V8.00779H13.806V12.6089H7.44456V15.4539H13.806V20.0551H0V20.0551ZM135.231 20.091H141.592V0.560084H135.231V11.0368L129.053 0.560084H121.607V20.091H129.053V9.61427L135.231 20.091ZM75.1787 20.0551V0.560084H87.2273V5.16277H82.6262V8.00779H87.2273V12.6089H82.6262V15.4539H87.2273V20.0551H75.1787V20.0551ZM68.5104 20.0551H61.0659V5.16277H56.4619V0.560084H73.1129V5.16277H68.5104V20.0551ZM24.0398 20.0551H16.5923V0.560084H24.0398V7.72208H24.0414L27.2279 0.560084H34.1893L29.8498 10.3076L34.1893 20.0551H27.2279L24.0414 12.8944H24.0398V20.0551V20.0551ZM43.77 15.4883L42.7162 20.0551H35.0752L39.5738 0.560084H52.4853L56.9876 20.0551H50.4602L49.4061 15.4883H43.77Z" fill="white"/>
<path d="M51.5957 217.603H1.13286V205.493L25.0255 182.671C27.6344 180.125 29.4195 178.169 30.3807 176.803C31.4106 175.374 31.9255 173.977 31.9255 172.611C31.9255 170.934 31.3419 169.63 30.1747 168.699C29.0762 167.705 27.5314 167.208 25.5404 167.208C21.215 167.208 17.9881 169.475 15.8598 174.008L0 165.997C2.26568 161.216 5.62987 157.521 10.0926 154.912C14.6239 152.304 19.7045 151 25.3344 151C32.2001 151 38.0703 152.863 42.9449 156.589C47.8882 160.253 50.3599 165.283 50.3599 171.679C50.3599 175.281 49.433 178.697 47.5793 181.926C45.7255 185.093 42.8076 188.54 38.8255 192.266L29.0419 201.488H51.5957V217.603Z" fill="white"/>
<path d="M108.057 209.778C102.84 215.926 95.5276 219 86.1216 219C76.7156 219 69.3693 215.926 64.0827 209.778C58.8647 203.568 56.2558 195.309 56.2558 185C56.2558 174.629 58.8647 166.401 64.0827 160.315C69.3006 154.105 76.6469 151 86.1216 151C95.5276 151 102.84 154.105 108.057 160.315C113.344 166.525 115.987 174.753 115.987 185C115.987 195.247 113.344 203.506 108.057 209.778ZM86.1216 167.208C78.5006 167.208 74.6902 173.139 74.6902 185C74.6902 196.861 78.5006 202.792 86.1216 202.792C93.7425 202.792 97.5529 196.861 97.5529 185C97.5529 173.139 93.7425 167.208 86.1216 167.208Z" fill="white"/>
<path d="M169.667 217.603H119.204V205.493L143.097 182.671C145.706 180.125 147.491 178.169 148.452 176.803C149.482 175.374 149.997 173.977 149.997 172.611C149.997 170.934 149.413 169.63 148.246 168.699C147.147 167.705 145.603 167.208 143.612 167.208C139.286 167.208 136.059 169.475 133.931 174.008L118.071 165.997C120.337 161.216 123.701 157.521 128.164 154.912C132.695 152.304 137.776 151 143.406 151C150.271 151 156.141 152.863 161.016 156.589C165.959 160.253 168.431 165.283 168.431 171.679C168.431 175.281 167.504 178.697 165.65 181.926C163.797 185.093 160.879 188.54 156.897 192.266L147.113 201.488H169.667V217.603Z" fill="white"/>
<path d="M222.718 165.532L210.669 178.945C215.337 180.249 219.045 182.516 221.791 185.745C224.606 188.912 226.014 192.7 226.014 197.11C226.014 204.065 223.473 209.468 218.393 213.318C213.381 217.106 207.099 219 199.546 219C193.436 219 188.081 217.758 183.481 215.274C178.881 212.728 175.585 209.064 173.594 204.282L189.66 195.992C191.17 200.525 194.466 202.792 199.546 202.792C202.155 202.792 204.146 202.233 205.519 201.115C206.961 199.997 207.682 198.507 207.682 196.644C207.682 194.781 206.961 193.321 205.519 192.266C204.146 191.148 202.155 190.589 199.546 190.589H195.633L188.527 181.088L200.061 168.326H175.86V152.397H222.718V165.532Z" fill="white"/>
</svg>
