<svg width="32" height="31" viewBox="0 0 32 31" fill="none" xmlns="http://www.w3.org/2000/svg">
<path d="M16.4004 0C7.84027 0 0.900391 6.81255 0.900391 15.2163C0.900391 23.6201 7.84027 30.4326 16.4004 30.4326C24.9605 30.4326 31.9004 23.6201 31.9004 15.2163C31.9004 6.81255 24.9605 0 16.4004 0ZM24.2628 16.862C24.9852 17.5547 25.7495 18.2066 26.3981 18.971C26.6854 19.3091 26.9562 19.6587 27.1624 20.0519C27.4567 20.6126 27.1909 21.2275 26.6797 21.2608L23.5042 21.2602C22.6841 21.3268 22.0315 21.0021 21.4812 20.4517C21.042 20.013 20.6345 19.5444 20.2114 19.0908C20.0386 18.9046 19.8565 18.7294 19.6396 18.5914C19.2067 18.315 18.8306 18.3997 18.5826 18.8436C18.3298 19.2954 18.2721 19.796 18.248 20.2988C18.2135 21.0338 17.9877 21.2259 17.2364 21.2605C15.631 21.3343 14.1078 21.0952 12.6921 20.3007C11.4432 19.5999 10.4766 18.6108 9.6343 17.4909C7.99408 15.3078 6.7379 12.9118 5.60922 10.447C5.35519 9.89192 5.54104 9.59491 6.16484 9.58339C7.20124 9.56378 8.23764 9.56627 9.27404 9.58246C9.69583 9.589 9.97491 9.82592 10.137 10.2166C10.697 11.5694 11.3836 12.8564 12.244 14.0501C12.4733 14.3679 12.7073 14.6849 13.0407 14.9093C13.4085 15.1572 13.6889 15.0753 13.8624 14.6721C13.9734 14.4159 14.0212 14.1419 14.0453 13.8673C14.1278 12.9268 14.1376 11.9866 13.9949 11.0498C13.9061 10.4635 13.5703 10.0849 12.975 9.97411C12.6718 9.91776 12.7162 9.80755 12.8637 9.63757C13.1196 9.34367 13.3594 9.16185 13.8386 9.16185L17.4263 9.16123C17.9918 9.2702 18.1186 9.51926 18.1954 10.0784L18.1985 13.9925C18.1919 14.2088 18.3092 14.8502 18.705 14.9918C19.0222 15.0946 19.2315 14.8449 19.4211 14.6478C20.2815 13.7515 20.8945 12.6936 21.4435 11.5986C21.6858 11.1158 21.8948 10.6161 22.0977 10.1155C22.2487 9.74529 22.4834 9.56316 22.909 9.56938L26.3638 9.57343C26.4656 9.57343 26.569 9.57437 26.6699 9.59149C27.2521 9.68925 27.4117 9.9352 27.2315 10.4928C26.948 11.3689 26.3971 12.0986 25.8586 12.8303C25.2815 13.6136 24.6659 14.3695 24.0944 15.1562C23.5692 15.8754 23.6108 16.2375 24.2628 16.862Z" fill="#7C7C7C"/>
</svg>
