<svg width="16" height="16" viewBox="0 0 16 16" fill="none" xmlns="http://www.w3.org/2000/svg">
<g clip-path="url(#clip0)">
<path d="M11.3787 0.215851H4.62131C2.43081 0.215851 0.648682 2.05315 0.648682 4.31147V11.2781C0.648682 13.5364 2.43081 15.3737 4.62131 15.3737H11.3787C13.5692 15.3737 15.3514 13.5364 15.3514 11.2781V4.31147C15.3514 2.05315 13.5692 0.215851 11.3787 0.215851ZM14.1636 11.2781C14.1636 12.8612 12.9143 14.1491 11.3787 14.1491H4.62131C3.08577 14.1491 1.8365 12.8612 1.8365 11.2781V4.31147C1.8365 2.72839 3.08574 1.44044 4.62131 1.44044H11.3787C12.9143 1.44044 14.1636 2.72836 14.1636 4.31147V11.2781Z" fill="#BDBDBD"/>
<path d="M11.2905 7.26608C11.186 6.53936 10.8644 5.8807 10.3605 5.36122C9.85665 4.84177 9.21778 4.51019 8.51291 4.40245C8.19198 4.3534 7.86659 4.3534 7.54569 4.40245C6.67456 4.53565 5.90591 5.01057 5.38129 5.73978C4.85668 6.46899 4.63886 7.3652 4.76806 8.26324C4.89725 9.16132 5.35792 9.95376 6.06523 10.4946C6.63944 10.9337 7.3203 11.1643 8.02232 11.1643C8.18506 11.1643 8.34897 11.1519 8.51288 11.1268C9.38401 10.9936 10.1527 10.5187 10.6773 9.78951C11.2019 9.06034 11.4197 8.16416 11.2905 7.26608ZM8.33866 9.91548C7.78142 10.0008 7.22533 9.85707 6.77285 9.51107C6.32037 9.16508 6.02568 8.65812 5.94307 8.08363C5.86042 7.50914 5.99972 6.93583 6.33533 6.46934C6.67097 6.00285 7.16267 5.69904 7.71994 5.61384C7.82257 5.59815 7.92592 5.5903 8.02927 5.5903C8.13262 5.5903 8.236 5.59815 8.33863 5.61387C9.26418 5.75535 9.97827 6.49152 10.1155 7.44575C10.2861 8.63168 9.48903 9.73963 8.33866 9.91548Z" fill="#BDBDBD"/>
<path d="M12.1366 3.53021C12.0259 3.4162 11.8729 3.35086 11.7166 3.35086C11.5603 3.35086 11.4072 3.41617 11.2966 3.53021C11.186 3.64425 11.1227 3.80181 11.1227 3.96319C11.1227 4.12456 11.186 4.28212 11.2966 4.39616C11.4072 4.51017 11.5603 4.57551 11.7166 4.57551C11.8729 4.57551 12.0259 4.5102 12.1366 4.39616C12.2471 4.28212 12.3105 4.1243 12.3105 3.96319C12.3105 3.80204 12.2471 3.64422 12.1366 3.53021Z" fill="#BDBDBD"/>
</g>
<defs>
<clipPath id="clip0">
<rect width="14.7027" height="15.1579" fill="white" transform="translate(0.648682 0.215851)"/>
</clipPath>
</defs>
</svg>
