<svg width="488" height="28" viewBox="0 0 488 28" fill="none" xmlns="http://www.w3.org/2000/svg">
<path d="M17.9557 4.92308L12.8533 11.4615C14.7489 12 16.2549 12.9487 17.3715 14.3077C18.514 15.6667 19.0852 17.2821 19.0852 19.1538C19.0852 21.9231 18.1375 24.0897 16.2419 25.6538C14.3983 27.2179 12.1003 28 9.34788 28C7.19267 28 5.28415 27.5128 3.6223 26.5385C1.96046 25.5385 0.753023 24.1282 0 22.3077L4.59604 19.6923C5.2452 21.7692 6.82914 22.8077 9.34788 22.8077C10.7241 22.8077 11.7887 22.4872 12.5417 21.8462C13.3207 21.1795 13.7102 20.2821 13.7102 19.1538C13.7102 18.0513 13.3207 17.1667 12.5417 16.5C11.7887 15.8333 10.7241 15.5 9.34788 15.5H8.17939L6.11507 12.4231L11.4901 5.5H0.817939V0.538461H17.9557V4.92308Z" fill="white"/>
<path d="M39 27.4615H20.7716V23.5L30.0806 14.0385C32.1579 11.859 33.1965 10.0641 33.1965 8.65385C33.1965 7.60256 32.859 6.75641 32.1838 6.11539C31.5347 5.47436 30.6908 5.15385 29.6521 5.15385C27.5748 5.15385 26.0558 6.20513 25.095 8.30769L20.5769 5.69231C21.4078 3.8718 22.6152 2.47436 24.1992 1.5C25.8091 0.500001 27.6008 0 29.5742 0C32.041 0 34.1573 0.769231 35.923 2.30769C37.6887 3.82051 38.5716 5.8718 38.5716 8.46154C38.5716 11.2564 37.0785 14.1282 34.0924 17.0769L28.7563 22.3462H39V27.4615Z" fill="white"/>
<path d="M96.6995 28C94.0279 28 91.7712 27.4103 89.9296 26.2308C88.088 25.0513 86.7781 23.4231 86 21.3462L90.591 18.6923C91.6545 21.4359 93.7425 22.8077 96.8551 22.8077C98.3076 22.8077 99.397 22.5513 100.123 22.0385C100.85 21.5256 101.213 20.8333 101.213 19.9615C101.213 19.0128 100.785 18.2821 99.9288 17.7692C99.0728 17.2308 97.5425 16.6538 95.3377 16.0385C92.9514 15.3205 91.0709 14.4872 89.6962 13.5385C87.9843 12.2821 87.1283 10.4359 87.1283 8C87.1283 5.53846 87.9972 3.60256 89.7351 2.19231C91.4729 0.730769 93.5869 0 96.077 0C98.2558 0 100.188 0.525641 101.874 1.57692C103.56 2.62821 104.87 4.11538 105.804 6.03846L101.291 8.61539C100.201 6.30769 98.4633 5.15385 96.077 5.15385C94.9876 5.15385 94.1186 5.41026 93.4702 5.92308C92.8217 6.41026 92.4975 7.05128 92.4975 7.84615C92.4975 8.69231 92.8477 9.38461 93.548 9.92308C94.3261 10.4615 95.7009 11.0256 97.6722 11.6154L99.5397 12.2308C99.8769 12.3333 100.461 12.5513 101.291 12.8846C102.069 13.1667 102.639 13.4359 103.002 13.6923C104.273 14.4615 105.129 15.2564 105.57 16.0769C106.245 17.1538 106.582 18.4231 106.582 19.8846C106.582 22.3718 105.661 24.3462 103.819 25.8077C101.978 27.2692 99.6045 28 96.6995 28Z" fill="white"/>
<path d="M120.239 28C117.204 28 114.714 27.1538 112.768 25.4615C110.823 23.7692 109.85 21.5 109.85 18.6538V0.538461H115.181V18.2308C115.181 19.6667 115.596 20.7949 116.426 21.6154C117.282 22.4103 118.553 22.8077 120.239 22.8077C121.925 22.8077 123.183 22.4103 124.013 21.6154C124.869 20.7949 125.297 19.6667 125.297 18.2308V0.538461H130.666V18.6538C130.666 21.5 129.693 23.7692 127.748 25.4615C125.802 27.1538 123.299 28 120.239 28Z" fill="white"/>
<path d="M156.629 0.538461H162.154V27.4615H156.824V10L149.159 22.5H148.537L140.872 10.0385V27.4615H135.503V0.538461H141.028L148.848 13.2692L156.629 0.538461Z" fill="white"/>
<path d="M188.355 0.538461H193.88V27.4615H188.55V10L180.885 22.5H180.263L172.598 10.0385V27.4615H167.229V0.538461H172.754L180.574 13.2692L188.355 0.538461Z" fill="white"/>
<path d="M204.324 16.3462V22.3846H215.802V27.4615H198.955V0.538461H215.607V5.61538H204.324V11.3462H214.634V16.3462H204.324Z" fill="white"/>
<path d="M240.324 27.4615H234.527L229.041 18.1154H224.955V27.4615H219.586V0.538461H230.48C232.996 0.538461 235.136 1.41026 236.9 3.15385C238.664 4.89744 239.546 7 239.546 9.46154C239.546 11.1282 239.066 12.6795 238.106 14.1154C237.146 15.5256 235.875 16.5897 234.293 17.3077L240.324 27.4615ZM230.48 5.5H224.955V13.4615H230.48C231.492 13.4615 232.361 13.0769 233.087 12.3077C233.813 11.5128 234.176 10.5641 234.176 9.46154C234.176 8.35897 233.813 7.42308 233.087 6.65385C232.361 5.88462 231.492 5.5 230.48 5.5Z" fill="white"/>
<path d="M263.367 28C260.332 28 257.842 27.1538 255.897 25.4615C253.951 23.7692 252.979 21.5 252.979 18.6538V0.538461H258.309V18.2308C258.309 19.6667 258.724 20.7949 259.554 21.6154C260.41 22.4103 261.681 22.8077 263.367 22.8077C265.053 22.8077 266.311 22.4103 267.141 21.6154C267.997 20.7949 268.425 19.6667 268.425 18.2308V0.538461H273.794V18.6538C273.794 21.5 272.821 23.7692 270.876 25.4615C268.931 27.1538 266.428 28 263.367 28Z" fill="white"/>
<path d="M294.388 16.9615V0.538461H299.758V27.4615H295.672L284 11V27.4615H278.631V0.538461H282.716L294.388 16.9615Z" fill="white"/>
<path d="M304.81 27.4615V0.538461H310.179V27.4615H304.81Z" fill="white"/>
<path d="M328.605 27.4615H321.951L312.808 0.538461H318.644L325.297 21.2308L331.912 0.538461H337.787L328.605 27.4615Z" fill="white"/>
<path d="M345.781 16.3462V22.3846H357.258V27.4615H340.411V0.538461H357.064V5.61538H345.781V11.3462H356.091V16.3462H345.781Z" fill="white"/>
<path d="M381.78 27.4615H375.983L370.497 18.1154H366.412V27.4615H361.043V0.538461H371.937C374.453 0.538461 376.593 1.41026 378.357 3.15385C380.12 4.89744 381.002 7 381.002 9.46154C381.002 11.1282 380.522 12.6795 379.563 14.1154C378.603 15.5256 377.332 16.5897 375.75 17.3077L381.78 27.4615ZM371.937 5.5H366.412V13.4615H371.937C372.948 13.4615 373.817 13.0769 374.544 12.3077C375.27 11.5128 375.633 10.5641 375.633 9.46154C375.633 8.35897 375.27 7.42308 374.544 6.65385C373.817 5.88462 372.948 5.5 371.937 5.5Z" fill="white"/>
<path d="M393.823 28C391.151 28 388.894 27.4103 387.053 26.2308C385.211 25.0513 383.901 23.4231 383.123 21.3462L387.714 18.6923C388.778 21.4359 390.866 22.8077 393.978 22.8077C395.431 22.8077 396.52 22.5513 397.247 22.0385C397.973 21.5256 398.336 20.8333 398.336 19.9615C398.336 19.0128 397.908 18.2821 397.052 17.7692C396.196 17.2308 394.666 16.6538 392.461 16.0385C390.075 15.3205 388.194 14.4872 386.819 13.5385C385.108 12.2821 384.252 10.4359 384.252 8C384.252 5.53846 385.12 3.60256 386.858 2.19231C388.596 0.730769 390.71 0 393.2 0C395.379 0 397.311 0.525641 398.997 1.57692C400.683 2.62821 401.993 4.11538 402.927 6.03846L398.414 8.61539C397.324 6.30769 395.586 5.15385 393.2 5.15385C392.111 5.15385 391.242 5.41026 390.593 5.92308C389.945 6.41026 389.621 7.05128 389.621 7.84615C389.621 8.69231 389.971 9.38461 390.671 9.92308C391.449 10.4615 392.824 11.0256 394.795 11.6154L396.663 12.2308C397 12.3333 397.584 12.5513 398.414 12.8846C399.192 13.1667 399.763 13.4359 400.126 13.6923C401.397 14.4615 402.253 15.2564 402.694 16.0769C403.368 17.1538 403.705 18.4231 403.705 19.8846C403.705 22.3718 402.784 24.3462 400.943 25.8077C399.101 27.2692 396.728 28 393.823 28Z" fill="white"/>
<path d="M407.017 27.4615V0.538461H412.386V27.4615H407.017Z" fill="white"/>
<path d="M440.772 27.4615H434.936L433.302 22.6154H422.447L420.813 27.4615H415.016L424.548 0.538461H431.201L440.772 27.4615ZM427.894 6.65385L424.159 17.6538H431.629L427.894 6.65385Z" fill="white"/>
<path d="M443.417 0.538461H454.233C457.968 0.538461 461.08 1.83333 463.571 4.42308C466.087 6.98718 467.345 10.1795 467.345 14C467.345 17.8205 466.087 21.0128 463.571 23.5769C461.08 26.1667 457.968 27.4615 454.233 27.4615H443.417V0.538461ZM448.786 22.3846H454.233C456.593 22.3846 458.513 21.6154 459.991 20.0769C461.47 18.4872 462.209 16.4615 462.209 14C462.209 11.5128 461.47 9.5 459.991 7.96154C458.513 6.39744 456.593 5.61538 454.233 5.61538H448.786V22.3846Z" fill="white"/>
<path d="M476.522 16.3462V22.3846H488V27.4615H471.153V0.538461H487.805V5.61538H476.522V11.3462H486.833V16.3462H476.522Z" fill="white"/>
<path d="M42 0H52.0529V2.64H48.3636V14H45.6698V2.64H42V0Z" fill="white"/>
<path d="M61.3257 5.56V0H64V14H61.3257V8.2H56.2505V14H53.5567V0H56.2505V5.56H61.3257Z" fill="white"/>
</svg>
