<?xml version="1.0" encoding="UTF-8" standalone="no"?>
<svg
   xmlns:dc="http://purl.org/dc/elements/1.1/"
   xmlns:cc="http://creativecommons.org/ns#"
   xmlns:rdf="http://www.w3.org/1999/02/22-rdf-syntax-ns#"
   xmlns:svg="http://www.w3.org/2000/svg"
   xmlns="http://www.w3.org/2000/svg"
   viewBox="0 0 870.45465 219.67599"
   height="219.67599"
   width="870.45465"
   xml:space="preserve"
   id="svg2"
   version="1.1"><metadata
     id="metadata8"><rdf:RDF><cc:Work
         rdf:about=""><dc:format>image/svg+xml</dc:format><dc:type
           rdf:resource="http://purl.org/dc/dcmitype/StillImage" /></cc:Work></rdf:RDF></metadata><defs
     id="defs6"><clipPath
       id="clipPath18"
       clipPathUnits="userSpaceOnUse"><path
         id="path16"
         d="M 0,164.757 H 652.841 V 0 H 0 Z" /></clipPath></defs><g
     transform="matrix(1.3333333,0,0,-1.3333333,0,219.676)"
     id="g10"><g
       id="g12"><g
         clip-path="url(#clipPath18)"
         id="g14"><g
           transform="translate(204.9043,55.2588)"
           id="g20"><path
             id="path22"
             style="fill:#fff;fill-opacity:1;fill-rule:nonzero;stroke:none"
             d="m 0,0 c 0,1.247 -0.992,2.153 -2.324,2.153 -1.331,0 -2.323,-0.906 -2.323,-2.153 0,-1.247 0.992,-2.153 2.323,-2.153 C -0.992,-2.153 0,-1.247 0,0 m 0.51,-8.218 c 0,1.361 -1.049,2.693 -2.834,2.693 -1.813,0 -2.833,-1.332 -2.833,-2.693 0,-1.359 1.02,-2.691 2.833,-2.691 1.785,0 2.834,1.332 2.834,2.691 M -9.578,-8.331 c 0,2.183 0.85,3.74 2.409,4.732 -1.077,1.021 -1.615,2.352 -1.615,3.995 0,3.174 2.522,5.526 6.46,5.526 3.939,0 6.461,-2.352 6.461,-5.526 0,-1.615 -0.595,-3.002 -1.643,-3.995 1.558,-0.992 2.436,-2.549 2.436,-4.732 0,-3.825 -3.201,-6.517 -7.254,-6.517 -4.108,0 -7.254,2.692 -7.254,6.517" /></g><path
           id="path24"
           style="fill:#fff;fill-opacity:1;fill-rule:nonzero;stroke:none"
           d="m 218.985,52.822 h 13.686 v -4.081 h -13.686 z" /><g
           transform="translate(245.0522,56.6191)"
           id="g26"><path
             id="path28"
             style="fill:#fff;fill-opacity:1;fill-rule:nonzero;stroke:none"
             d="m 0,0 h -4.364 l 3.06,4.222 H 4.279 V -15.896 H 0 Z" /></g><g
           transform="translate(262.3926,54.2383)"
           id="g30"><path
             id="path32"
             style="fill:#fff;fill-opacity:1;fill-rule:nonzero;stroke:none"
             d="m 0,0 c 0,1.587 -1.105,2.834 -2.777,2.834 -1.615,0 -2.777,-1.247 -2.777,-2.834 0,-1.586 1.162,-2.833 2.777,-2.833 C -1.105,-2.833 0,-1.586 0,0 m -4.052,-6.488 c -2.805,0.226 -5.809,2.436 -5.809,6.431 0,3.968 2.692,6.999 7.084,6.999 4.392,0 7.084,-3.031 7.084,-7.027 0,-1.983 -0.822,-3.173 -2.38,-5.412 l -5.639,-8.019 h -5.27 z" /></g><g
           transform="translate(281.2622,48.8838)"
           id="g34"><path
             id="path36"
             style="fill:#fff;fill-opacity:1;fill-rule:nonzero;stroke:none"
             d="M 0,0 H 5.072 L 2.55,6.035 Z M 0.51,11.957 H 4.59 L 13.204,-8.161 H 8.5 l -1.785,4.25 h -8.33 L -3.4,-8.161 h -4.704 z" /></g><g
           transform="translate(295.5142,48.6846)"
           id="g38"><path
             id="path40"
             style="fill:#fff;fill-opacity:1;fill-rule:nonzero;stroke:none"
             d="M 0,0 V 12.156 H 4.505 V -0.057 c 0,-2.408 1.502,-3.881 3.769,-3.881 2.267,0 3.768,1.473 3.768,3.881 v 12.213 h 4.506 V 0 c 0,-5.015 -3.428,-8.302 -8.274,-8.302 C 3.429,-8.302 0,-5.015 0,0" /></g><g
           transform="translate(314.979,50.7822)"
           id="g42"><path
             id="path44"
             style="fill:#fff;fill-opacity:1;fill-rule:nonzero;stroke:none"
             d="m 0,0 c 0,5.724 4.364,10.398 10.598,10.398 3.598,0 6.319,-1.274 8.245,-3.428 L 15.669,3.882 C 14.536,5.1 12.893,6.035 10.598,6.035 6.971,6.035 4.534,3.258 4.534,0 c 0,-3.4 2.408,-6.036 6.347,-6.036 1.587,0 3.032,0.283 3.91,0.964 v 2.974 h -3.938 v 4.223 h 8.33 v -9.55 C 17.37,-9.465 14.225,-10.399 10.938,-10.399 4.675,-10.399 0,-5.895 0,0" /></g><g
           transform="translate(337.4756,48.6846)"
           id="g46"><path
             id="path48"
             style="fill:#fff;fill-opacity:1;fill-rule:nonzero;stroke:none"
             d="M 0,0 V 12.156 H 4.505 V -0.057 c 0,-2.408 1.502,-3.881 3.769,-3.881 2.267,0 3.768,1.473 3.768,3.881 v 12.213 h 4.506 V 0 c 0,-5.015 -3.428,-8.302 -8.274,-8.302 C 3.429,-8.302 0,-5.015 0,0" /></g><g
           transform="translate(356.6006,43.9814)"
           id="g50"><path
             id="path52"
             style="fill:#fff;fill-opacity:1;fill-rule:nonzero;stroke:none"
             d="M 0,0 3.457,2.918 C 4.449,1.474 6.149,0.623 7.622,0.623 c 1.502,0 2.437,0.681 2.437,1.672 0,1.02 -0.765,1.728 -2.805,2.408 L 5.837,5.186 C 2.55,6.29 0.765,8.245 0.765,10.994 c 0,3.91 2.947,6.205 6.942,6.205 2.465,0 4.59,-0.736 6.489,-2.776 l -2.947,-3.117 c -0.935,1.133 -2.21,1.672 -3.485,1.672 -1.219,0 -2.437,-0.482 -2.437,-1.531 0,-1.105 0.964,-1.558 3.117,-2.323 l 1.417,-0.51 c 2.918,-1.049 4.817,-2.975 4.788,-6.008 0,-3.655 -3.003,-6.205 -7.197,-6.205 C 4.25,-3.599 1.587,-2.267 0,0" /></g><g
           transform="translate(377.7095,56.5342)"
           id="g54"><path
             id="path56"
             style="fill:#fff;fill-opacity:1;fill-rule:nonzero;stroke:none"
             d="M 0,0 H -5.128 V 4.307 H 9.719 V 0 H 4.534 V -15.812 H 0 Z" /></g><g
           transform="translate(408.5937,40.7227)"
           id="g58"><path
             id="path60"
             style="fill:#fff;fill-opacity:1;fill-rule:nonzero;stroke:none"
             d="m 0,0 h -13.885 v 1.445 c 0,4.562 3.486,6.432 6.433,8.558 1.587,1.133 3.031,2.408 3.031,3.853 0,1.332 -0.765,2.38 -2.38,2.38 -1.7,0 -2.72,-1.19 -2.72,-2.521 H -13.8 c 0,3.967 3.061,6.743 7.141,6.743 3.4,0 6.517,-2.125 6.517,-6.29 0,-3.627 -1.785,-5.355 -4.137,-7.112 C -5.242,6.376 -7.311,5.214 -7.85,4.222 H 0 Z" /></g><g
           transform="translate(422.251,48.458)"
           id="g62"><path
             id="path64"
             style="fill:#fff;fill-opacity:1;fill-rule:nonzero;stroke:none"
             d="m 0,0 v 4.676 c 0,2.408 -1.36,3.825 -3.315,3.825 -2.012,0 -3.344,-1.417 -3.344,-3.825 V 0 c 0,-2.408 1.332,-3.825 3.344,-3.825 C -1.36,-3.825 0,-2.408 0,0 m -10.938,0 v 4.676 c 0,4.646 3.088,8.047 7.623,8.047 4.476,0 7.593,-3.401 7.593,-8.047 V 0 c 0,-4.646 -3.117,-8.047 -7.593,-8.047 -4.535,0 -7.623,3.401 -7.623,8.047" /></g><g
           transform="translate(442.877,40.7227)"
           id="g66"><path
             id="path68"
             style="fill:#fff;fill-opacity:1;fill-rule:nonzero;stroke:none"
             d="m 0,0 h -13.884 v 1.445 c 0,4.562 3.486,6.432 6.432,8.558 1.587,1.133 3.032,2.408 3.032,3.853 0,1.332 -0.766,2.38 -2.38,2.38 -1.7,0 -2.721,-1.19 -2.721,-2.521 h -4.278 c 0,3.967 3.06,6.743 7.141,6.743 3.399,0 6.516,-2.125 6.516,-6.29 0,-3.627 -1.785,-5.355 -4.136,-7.112 C -5.242,6.376 -7.311,5.214 -7.849,4.222 H 0 Z" /></g><g
           transform="translate(445.1426,47.3535)"
           id="g70"><path
             id="path72"
             style="fill:#fff;fill-opacity:1;fill-rule:nonzero;stroke:none"
             d="m 0,0 h 4.251 c 0.198,-1.842 1.474,-2.721 3.315,-2.721 1.672,0 2.748,0.879 2.777,2.21 0.028,1.446 -1.161,2.438 -2.975,2.438 H 5.611 v 3.428 h 1.53 c 1.813,0 2.607,0.907 2.635,2.182 0.029,1.218 -0.963,2.068 -2.295,2.068 -1.7,0 -2.834,-1.162 -2.805,-2.521 H 0.397 c 0,4.278 3.571,6.743 7.084,6.743 4.307,0 6.602,-2.776 6.602,-5.922 0,-1.955 -1.048,-3.513 -2.097,-4.335 1.361,-0.68 2.664,-2.154 2.664,-4.449 0,-3.514 -2.862,-6.063 -7.084,-6.063 C 3.826,-6.942 0.143,-4.619 0,0" /></g><g
           transform="translate(65.4248,109.1426)"
           id="g74"><path
             id="path76"
             style="fill:#fff;fill-opacity:1;fill-rule:nonzero;stroke:none"
             d="m 0,0 c -1.102,0.959 -2.737,1.439 -4.904,1.439 h -5.863 V -9.487 h 5.863 c 2.167,0 3.802,0.47 4.904,1.412 1.101,0.941 1.652,2.283 1.652,4.024 C 1.652,-2.31 1.101,-0.959 0,0 m -5.01,-17.642 h -5.757 v -9.914 H -21.32 V 9.753 h 17.056 c 3.375,0 6.306,-0.559 8.794,-1.678 2.487,-1.119 4.406,-2.719 5.757,-4.797 1.349,-2.079 2.025,-4.522 2.025,-7.329 0,-2.7 -0.631,-5.055 -1.892,-7.062 -1.262,-2.008 -3.065,-3.58 -5.41,-4.717 l 8.048,-11.726 H 1.759 Z" /></g><g
           transform="translate(119.8955,89.7417)"
           id="g78"><path
             id="path80"
             style="fill:#fff;fill-opacity:1;fill-rule:nonzero;stroke:none"
             d="M 0,0 V -8.155 H -29.954 V 29.154 H -0.693 V 21 H -19.507 V 14.71 H -2.932 V 6.822 H -19.507 V 0 Z" /></g><g
           transform="translate(154.0601,96.6172)"
           id="g82"><path
             id="path84"
             style="fill:#fff;fill-opacity:1;fill-rule:nonzero;stroke:none"
             d="M 0,0 -4.797,11.939 -9.594,0 Z m 3.091,-7.782 h -15.776 l -2.932,-7.248 H -26.383 L -9.914,22.279 H 0.48 L 17.002,-15.03 H 6.023 Z" /></g><g
           transform="translate(197.6582,90.0083)"
           id="g86"><path
             id="path88"
             style="fill:#fff;fill-opacity:1;fill-rule:nonzero;stroke:none"
             d="m 0,0 c 3.198,0 5.765,0.906 7.702,2.718 1.936,1.812 2.905,4.317 2.905,7.515 0,3.198 -0.969,5.703 -2.905,7.516 C 5.765,19.561 3.198,20.467 0,20.467 H -6.662 V 0 Z M -17.215,28.888 H 0.427 c 4.085,0 7.71,-0.764 10.873,-2.292 3.162,-1.528 5.614,-3.696 7.355,-6.502 1.741,-2.808 2.612,-6.095 2.612,-9.861 0,-3.767 -0.871,-7.053 -2.612,-9.86 C 16.914,-2.435 14.462,-4.602 11.3,-6.129 8.137,-7.658 4.512,-8.421 0.427,-8.421 h -17.642 z" /></g><g
           transform="translate(249.251,94.9648)"
           id="g90"><path
             id="path92"
             style="fill:#fff;fill-opacity:1;fill-rule:nonzero;stroke:none"
             d="M 0,0 V -13.378 H -10.553 V 0.16 l -14.231,23.771 h 11.139 L -4.797,9.114 4.051,23.931 h 10.233 z" /></g><g
           transform="translate(302.4434,110.5283)"
           id="g94"><path
             id="path96"
             style="fill:#fff;fill-opacity:1;fill-rule:nonzero;stroke:none"
             d="M 0,0 H -11.46 V 8.368 H 21.959 V 0 H 10.553 V -28.941 H 0 Z" /></g><g
           transform="translate(358.1396,90.9141)"
           id="g98"><path
             id="path100"
             style="fill:#fff;fill-opacity:1;fill-rule:nonzero;stroke:none"
             d="m 0,0 c 1.527,0.888 2.735,2.141 3.624,3.758 0.888,1.616 1.333,3.472 1.333,5.57 0,2.096 -0.445,3.952 -1.333,5.569 -0.889,1.617 -2.097,2.869 -3.624,3.758 -1.528,0.887 -3.233,1.332 -5.116,1.332 -1.884,0 -3.59,-0.445 -5.117,-1.332 -1.529,-0.889 -2.737,-2.141 -3.624,-3.758 -0.889,-1.617 -1.333,-3.473 -1.333,-5.569 0,-2.098 0.444,-3.954 1.333,-5.57 0.887,-1.617 2.095,-2.87 3.624,-3.758 1.527,-0.888 3.233,-1.333 5.117,-1.333 1.883,0 3.588,0.445 5.116,1.333 m -15.75,-7.568 c -3.145,1.67 -5.614,3.979 -7.408,6.928 -1.795,2.95 -2.692,6.271 -2.692,9.968 0,3.694 0.897,7.017 2.692,9.966 1.794,2.949 4.263,5.259 7.408,6.929 3.145,1.67 6.689,2.506 10.634,2.506 3.943,0 7.488,-0.836 10.633,-2.506 3.144,-1.67 5.614,-3.98 7.408,-6.929 1.794,-2.949 2.691,-6.272 2.691,-9.966 0,-3.697 -0.897,-7.018 -2.691,-9.968 -1.794,-2.949 -4.264,-5.258 -7.408,-6.928 -3.145,-1.671 -6.69,-2.505 -10.633,-2.505 -3.945,0 -7.489,0.834 -10.634,2.505" /></g><g
           transform="translate(466.1221,118.896)"
           id="g102"><path
             id="path104"
             style="fill:#fff;fill-opacity:1;fill-rule:nonzero;stroke:none"
             d="m 0,0 -12.099,-37.309 h -11.298 l -7.143,22.705 -7.462,-22.705 H -49.301 L -61.4,0 h 10.873 L -43.012,-23.824 -35.124,0 h 9.701 L -17.908,-24.038 -10.073,0 Z" /></g><g
           transform="translate(499.7549,90.9141)"
           id="g106"><path
             id="path108"
             style="fill:#fff;fill-opacity:1;fill-rule:nonzero;stroke:none"
             d="m 0,0 c 1.527,0.888 2.735,2.141 3.624,3.758 0.888,1.616 1.333,3.472 1.333,5.57 0,2.096 -0.445,3.952 -1.333,5.569 -0.889,1.617 -2.097,2.869 -3.624,3.758 -1.528,0.887 -3.233,1.332 -5.116,1.332 -1.884,0 -3.59,-0.445 -5.117,-1.332 -1.529,-0.889 -2.737,-2.141 -3.624,-3.758 -0.889,-1.617 -1.333,-3.473 -1.333,-5.569 0,-2.098 0.444,-3.954 1.333,-5.57 0.887,-1.617 2.095,-2.87 3.624,-3.758 1.527,-0.888 3.233,-1.333 5.117,-1.333 1.883,0 3.588,0.445 5.116,1.333 m -15.75,-7.568 c -3.145,1.67 -5.614,3.979 -7.408,6.928 -1.795,2.95 -2.692,6.271 -2.692,9.968 0,3.694 0.897,7.017 2.692,9.966 1.794,2.949 4.263,5.259 7.408,6.929 3.145,1.67 6.689,2.506 10.634,2.506 3.943,0 7.488,-0.836 10.633,-2.506 3.144,-1.67 5.614,-3.98 7.408,-6.929 1.794,-2.949 2.691,-6.272 2.691,-9.966 0,-3.697 -0.897,-7.018 -2.691,-9.968 -1.794,-2.949 -4.264,-5.258 -7.408,-6.928 -3.145,-1.671 -6.69,-2.505 -10.633,-2.505 -3.945,0 -7.489,0.834 -10.634,2.505" /></g><g
           transform="translate(584.5537,118.896)"
           id="g110"><path
             id="path112"
             style="fill:#fff;fill-opacity:1;fill-rule:nonzero;stroke:none"
             d="m 0,0 -12.099,-37.309 h -11.298 l -7.143,22.705 -7.462,-22.705 H -49.301 L -61.4,0 h 10.873 L -43.012,-23.824 -35.124,0 h 9.701 L -17.908,-24.038 -10.073,0 Z" /></g><g
           transform="translate(594.3604,118.896)"
           id="g114"><path
             id="path116"
             style="fill:#fff;fill-opacity:1;fill-rule:nonzero;stroke:none"
             d="M 0,0 H 12.046 L 10.021,-23.718 H 1.972 Z m 1.652,-36.163 c -1.137,1.083 -1.706,2.407 -1.706,3.971 0,1.599 0.569,2.913 1.706,3.944 1.137,1.03 2.593,1.545 4.37,1.545 1.777,0 3.225,-0.515 4.344,-1.545 1.12,-1.031 1.68,-2.345 1.68,-3.944 0,-1.564 -0.569,-2.888 -1.706,-3.971 -1.138,-1.085 -2.576,-1.626 -4.318,-1.626 -1.777,0 -3.233,0.541 -4.37,1.626" /></g></g></g></g></svg>
