<svg width="158" height="157" viewBox="0 0 158 157" fill="none" xmlns="http://www.w3.org/2000/svg">
<path d="M82 75.9135L83.0654 0C103.223 0.288421 122.441 8.56003 136.492 22.9956C150.543 37.4312 158.277 56.8486 157.992 76.9774C157.923 82.7172 157.187 88.4296 155.799 94L82 75.9135Z" fill="#E31B32"/>
<path d="M78.6518 78.5086L155 97.2405C150.023 117.456 137.204 134.87 119.364 145.652C101.523 156.434 80.1227 159.7 59.8697 154.732C39.6168 149.764 22.1705 136.969 11.3689 119.161C0.567326 101.354 -2.70479 79.9924 2.27238 59.7767C6.35802 42.4564 16.2867 27.0653 30.393 16.1853C44.4992 5.30541 61.9248 -0.401502 79.7465 0.0219799L78.6518 78.5086Z" fill="#0079BB"/>
</svg>
